[
  {
    "id": "GSOL251",
    "sistema": "S482",
    "assunto": "[S482] Unde iure ut beatae saepe et animi at.",
    "descricao": "Dolorum omnis rerum odio perspiciatis odio aut. Quis est tenetur. Vel nostrum fuga beatae sunt ut necessitatibus reprehenderit rerum. Sint laudantium accusamus aut reprehenderit ea. Veniam velit beatae. Omnis nihil tempore fugit nihil excepturi repudiandae ab.",
    "dataAbertura": "2016-05-16T11:12:38.324Z",
    "dataPlanejamento": "2016-05-16T18:29:09.328Z",
    "dataPrevisaoInicio": "2017-04-24T16:58:02.438Z",
    "dataPrevisaoFim": "2016-12-07T07:01:50.249Z",
    "pf": 243,
    "valor": "750.00",
    "diasDescontoPlanejamento": 10,
    "diasDescontoConclusao": 5,
    "status": "Em_Validacao_Planejamento",
    "pmasPrazo": 8,
    "pmasRealizado": 9,
    "pmasDescontar": 4,
    "pmasMulta": "438.00",
    "pmcosPrazo": 6,
    "pmcosRealizado": 2,
    "pmcosDescontar": 3,
    "pmcosMulta": "327.00",
    "diasInuteis": [
      "2016-05-16T22:18:19.480Z",
      "2016-05-17T02:16:48.284Z"
    ],
    "entregas": [
      {
        "id": "GSOL69086",
        "sistema": "S482",
        "assunto": "[S482] Dolorem id excepturi qui.",
        "descricao": "Vitae officiis et delectus minus voluptates alias ipsam tempore. Molestias unde ipsum quas molestiae ea. Commodi expedita eligendi omnis dolorem nam accusantium et deserunt. Nobis vel dolores vero assumenda labore delectus est culpa.",
        "dataAutorizacao": "2016-05-16T22:51:40.628Z",
        "dataPrevisaoInicio": "2017-05-01T05:19:13.586Z",
        "dataPrevisaoFim": "2016-08-05T15:12:43.942Z",
        "pf": 211,
        "valor": "863.00",
        "diasDescontoPlanejamento": 10,
        "diasDescontoConclusao": 4,
        "status": "Devolvida"
      },
      {
        "id": "GSOL59895",
        "sistema": "S849",
        "assunto": "[S849] Reiciendis quia sapiente rem unde et quia.",
        "descricao": "Iusto repellat quos temporibus cumque iure tempora beatae. Quo sed veritatis ratione eaque qui laboriosam aspernatur molestiae sed. Veniam optio dolores ipsum dolorum possimus dicta. Aspernatur autem perferendis voluptatum totam. Ut quos iusto hic et qui harum iure esse autem. Aut in voluptas repellat et cumque quas.",
        "dataAutorizacao": "2016-05-16T05:35:10.527Z",
        "dataPrevisaoInicio": "2017-04-27T18:10:31.034Z",
        "dataPrevisaoFim": "2016-08-18T09:28:54.398Z",
        "pf": 434,
        "valor": "812.00",
        "diasDescontoPlanejamento": 8,
        "diasDescontoConclusao": 7,
        "status": "Planejada"
      }
    ]
  },
  {
    "id": "GSOL33565",
    "sistema": "S073",
    "assunto": "[S073] Deserunt ut illum minus omnis recusandae quis sequi.",
    "descricao": "Sint consequatur distinctio aperiam velit. Aut quibusdam ipsam autem odio sed. Dolor aliquid ipsam quis eos numquam cupiditate in. Architecto sed odio nihil. Distinctio iste quo deserunt perferendis saepe qui consequuntur minima expedita. Dolore iure quia voluptas enim.",
    "dataAbertura": "2016-05-16T16:40:14.890Z",
    "dataPlanejamento": "2016-05-16T09:33:18.669Z",
    "dataPrevisaoInicio": "2017-04-18T12:55:00.292Z",
    "dataPrevisaoFim": "2017-01-16T04:02:36.693Z",
    "pf": 374,
    "valor": "969.00",
    "diasDescontoPlanejamento": 7,
    "diasDescontoConclusao": 5,
    "status": "Em_Atendimento",
    "pmasPrazo": 10,
    "pmasRealizado": 4,
    "pmasDescontar": 1,
    "pmasMulta": "644.00",
    "pmcosPrazo": 8,
    "pmcosRealizado": 10,
    "pmcosDescontar": 8,
    "pmcosMulta": "882.00",
    "diasInuteis": [
      "2016-05-16T06:22:32.248Z",
      "2016-05-16T14:40:52.325Z"
    ],
    "entregas": [
      {
        "id": "GSOL73253",
        "sistema": "S849",
        "assunto": "[S849] Perferendis praesentium vero est quo unde quis in.",
        "descricao": "Atque commodi quia harum voluptas in quis. Accusamus necessitatibus perspiciatis architecto qui modi. Aut modi qui reprehenderit. Et fugit optio numquam non recusandae quasi.",
        "dataAutorizacao": "2016-05-16T07:26:11.277Z",
        "dataPrevisaoInicio": "2017-05-12T23:46:46.041Z",
        "dataPrevisaoFim": "2016-08-05T09:20:43.189Z",
        "pf": 373,
        "valor": "583.00",
        "diasDescontoPlanejamento": 7,
        "diasDescontoConclusao": 0,
        "status": "Em_Execucao"
      },
      {
        "id": "GSOL17978",
        "sistema": "S320",
        "assunto": "[S320] Adipisci optio suscipit sed a ducimus sed quia molestiae quo.",
        "descricao": "Magni natus voluptatum aperiam laudantium. Eos sed non architecto omnis. Repellendus perspiciatis ducimus non corrupti.",
        "dataAutorizacao": "2016-05-17T03:46:27.447Z",
        "dataPrevisaoInicio": "2016-12-30T03:26:55.761Z",
        "dataPrevisaoFim": "2017-04-20T11:02:05.640Z",
        "pf": 234,
        "valor": "283.00",
        "diasDescontoPlanejamento": 10,
        "diasDescontoConclusao": 3,
        "status": "Planejada"
      },
      {
        "id": "GSOL31303",
        "sistema": "S990",
        "assunto": "[S990] Cupiditate voluptas adipisci facilis quaerat.",
        "descricao": "Eligendi reprehenderit rem inventore blanditiis impedit dignissimos delectus nostrum et. Quasi cum ut ipsum maxime at. Quasi ex deleniti et eum. Laboriosam nam explicabo voluptatem corporis odit. Exercitationem non iste cumque. Ut nam magni aut animi unde similique cupiditate.",
        "dataAutorizacao": "2016-05-16T08:54:59.320Z",
        "dataPrevisaoInicio": "2017-02-19T05:23:15.887Z",
        "dataPrevisaoFim": "2017-01-28T12:31:36.918Z",
        "pf": 399,
        "valor": "453.00",
        "diasDescontoPlanejamento": 6,
        "diasDescontoConclusao": 10,
        "status": "Em_Execucao"
      }
    ]
  },
  {
    "id": "GSOL83927",
    "sistema": "S702",
    "assunto": "[S702] Quidem nostrum corrupti et pariatur.",
    "descricao": "Eum veniam saepe consequatur nihil. Et deleniti repellat quam quia laborum ut molestiae quibusdam et. Quia est nihil provident earum velit nihil dolores nesciunt veritatis. Fugit vero commodi eveniet placeat quis doloribus in hic officiis. Placeat eius provident quaerat amet dicta tempore. Est error quis deleniti tempora vero eligendi enim ullam.",
    "dataAbertura": "2016-05-16T06:16:12.337Z",
    "dataPlanejamento": "2016-05-17T00:40:59.829Z",
    "dataPrevisaoInicio": "2017-01-24T00:45:08.603Z",
    "dataPrevisaoFim": "2016-11-28T05:00:53.656Z",
    "pf": 163,
    "valor": "573.00",
    "diasDescontoPlanejamento": 8,
    "diasDescontoConclusao": 7,
    "status": "Execucao_Autorizada",
    "pmasPrazo": 4,
    "pmasRealizado": 10,
    "pmasDescontar": 6,
    "pmasMulta": "405.00",
    "pmcosPrazo": 1,
    "pmcosRealizado": 2,
    "pmcosDescontar": 9,
    "pmcosMulta": "916.00",
    "diasInuteis": [
      "2016-05-16T18:53:05.354Z",
      "2016-05-16T16:01:22.575Z"
    ],
    "entregas": [
      {
        "id": "GSOL74622",
        "sistema": "S549",
        "assunto": "[S549] Temporibus in qui reprehenderit qui et esse facilis eveniet praesentium.",
        "descricao": "Eum rerum similique corrupti. Expedita voluptatem atque at vel tempora. Aut occaecati qui dolore dolores et quia veniam enim. Ut possimus quis delectus minus qui.",
        "dataAutorizacao": "2016-05-17T02:20:59.575Z",
        "dataPrevisaoInicio": "2016-09-07T19:37:54.040Z",
        "dataPrevisaoFim": "2016-10-21T21:59:44.282Z",
        "pf": 45,
        "valor": "927.00",
        "diasDescontoPlanejamento": 0,
        "diasDescontoConclusao": 7,
        "status": "Em_Execucao"
      },
      {
        "id": "GSOL55159",
        "sistema": "S073",
        "assunto": "[S073] Pariatur voluptatibus quas ipsum hic voluptatem ipsum sint.",
        "descricao": "Consequatur totam officiis sunt voluptatum facere ut odio. Rerum vitae dolorem harum et est minus voluptatibus voluptate. Saepe vel saepe suscipit nihil est voluptatem id maiores aut. Numquam explicabo odio quia unde dolore delectus consequatur officiis accusantium. Rerum sint cum veritatis maxime quas ipsam laudantium et. Assumenda laboriosam in temporibus facilis itaque.",
        "dataAutorizacao": "2016-05-16T14:41:42.012Z",
        "dataPrevisaoInicio": "2017-03-29T02:32:54.525Z",
        "dataPrevisaoFim": "2016-09-26T10:57:33.685Z",
        "pf": 384,
        "valor": "524.00",
        "diasDescontoPlanejamento": 0,
        "diasDescontoConclusao": 7,
        "status": "Finalizada"
      }
    ]
  },
  {
    "id": "GSOL95961",
    "sistema": "S849",
    "assunto": "[S849] Laudantium sequi commodi eos ratione aliquid accusamus.",
    "descricao": "Est consectetur quis illum in dolores consectetur amet quia. Rerum in veritatis id ut. Perspiciatis deserunt excepturi incidunt minima vel quibusdam molestiae vero minima. Iste minima saepe. Nam ea sit aut nisi. Autem ut commodi consequatur occaecati a beatae voluptatem tempora hic.",
    "dataAbertura": "2016-05-16T05:57:55.913Z",
    "dataPlanejamento": "2016-05-16T12:36:40.076Z",
    "dataPrevisaoInicio": "2016-07-02T19:22:55.402Z",
    "dataPrevisaoFim": "2016-12-14T05:30:57.280Z",
    "pf": 183,
    "valor": "36.00",
    "diasDescontoPlanejamento": 3,
    "diasDescontoConclusao": 3,
    "status": "Em_Atendimento",
    "pmasPrazo": 1,
    "pmasRealizado": 2,
    "pmasDescontar": 9,
    "pmasMulta": "756.00",
    "pmcosPrazo": 10,
    "pmcosRealizado": 4,
    "pmcosDescontar": 4,
    "pmcosMulta": "797.00",
    "diasInuteis": [
      "2016-05-16T07:58:06.856Z",
      "2016-05-16T04:48:07.937Z"
    ],
    "entregas": [
      {
        "id": "GSOL10440",
        "sistema": "S549",
        "assunto": "[S549] Distinctio officia nostrum ut deserunt.",
        "descricao": "Aliquam ipsum sit corrupti sequi. Velit totam a inventore animi. Quo cupiditate est eos ut. Voluptatem reiciendis ratione assumenda omnis eaque laudantium vitae alias.",
        "dataAutorizacao": "2016-05-17T03:33:44.940Z",
        "dataPrevisaoInicio": "2016-05-17T05:16:07.288Z",
        "dataPrevisaoFim": "2016-06-18T01:58:37.637Z",
        "pf": 455,
        "valor": "883.00",
        "diasDescontoPlanejamento": 0,
        "diasDescontoConclusao": 8,
        "status": "Devolvida"
      }
    ]
  },
  {
    "id": "GSOL16692",
    "sistema": "S990",
    "assunto": "[S990] Minus dicta blanditiis.",
    "descricao": "Praesentium dicta nostrum qui temporibus occaecati et unde provident qui. Est similique ut vitae minima quas rerum. Non corporis excepturi placeat repellendus officiis molestiae et. Qui quia illum explicabo.",
    "dataAbertura": "2016-05-16T14:23:53.071Z",
    "dataPlanejamento": "2016-05-16T05:21:39.381Z",
    "dataPrevisaoInicio": "2017-02-07T06:11:53.793Z",
    "dataPrevisaoFim": "2016-09-19T13:18:10.913Z",
    "pf": 474,
    "valor": "161.00",
    "diasDescontoPlanejamento": 8,
    "diasDescontoConclusao": 3,
    "status": "Em_Garantia",
    "pmasPrazo": 3,
    "pmasRealizado": 1,
    "pmasDescontar": 10,
    "pmasMulta": "538.00",
    "pmcosPrazo": 5,
    "pmcosRealizado": 10,
    "pmcosDescontar": 6,
    "pmcosMulta": "986.00",
    "diasInuteis": [
      "2016-05-16T23:11:38.955Z",
      "2016-05-16T10:39:28.867Z"
    ],
    "entregas": [
      {
        "id": "GSOL24475",
        "sistema": "S482",
        "assunto": "[S482] Non distinctio libero porro unde.",
        "descricao": "Distinctio qui qui quisquam aut enim quis impedit sed aut. Et aut qui eaque quas in maiores. Debitis ut quia omnis ex. Vel distinctio nihil veniam dignissimos nihil temporibus commodi vel. Modi optio corrupti sit architecto consequatur corrupti modi nihil aut.",
        "dataAutorizacao": "2016-05-17T02:00:09.184Z",
        "dataPrevisaoInicio": "2016-11-16T03:57:02.381Z",
        "dataPrevisaoFim": "2016-08-24T15:45:25.757Z",
        "pf": 484,
        "valor": "978.00",
        "diasDescontoPlanejamento": 6,
        "diasDescontoConclusao": 6,
        "status": "Em_Garantia"
      }
    ]
  },
  {
    "id": "GSOL71921",
    "sistema": "S073",
    "assunto": "[S073] Ut aspernatur est distinctio alias aliquid est sunt sed debitis.",
    "descricao": "Sit reiciendis dolor praesentium tenetur provident. Expedita ipsam iste quod. Nemo et quas. Aperiam ut vel qui sequi ut praesentium dolorum. Voluptatem voluptatem unde laboriosam beatae occaecati autem dolor. Sequi rem molestiae debitis et alias.",
    "dataAbertura": "2016-05-16T14:20:15.883Z",
    "dataPlanejamento": "2016-05-16T06:30:55.740Z",
    "dataPrevisaoInicio": "2017-04-14T20:49:58.147Z",
    "dataPrevisaoFim": "2017-04-09T00:12:23.471Z",
    "pf": 251,
    "valor": "329.00",
    "diasDescontoPlanejamento": 10,
    "diasDescontoConclusao": 1,
    "status": "Em_Garantia",
    "pmasPrazo": 2,
    "pmasRealizado": 7,
    "pmasDescontar": 5,
    "pmasMulta": "406.00",
    "pmcosPrazo": 4,
    "pmcosRealizado": 4,
    "pmcosDescontar": 1,
    "pmcosMulta": "566.00",
    "diasInuteis": [
      "2016-05-16T14:38:06.544Z",
      "2016-05-17T00:33:14.217Z"
    ],
    "entregas": [
      {
        "id": "GSOL1450",
        "sistema": "S073",
        "assunto": "[S073] Voluptate enim cumque non quis qui aspernatur quibusdam sit sit.",
        "descricao": "Eius reiciendis a dolor maiores est doloribus. Minima ipsum provident in. Natus sequi magni corporis modi voluptatum. Eaque provident aut. Et minima maiores nam omnis dolore. Sapiente ratione quo harum harum numquam consectetur recusandae quisquam.",
        "dataAutorizacao": "2016-05-17T02:32:15.435Z",
        "dataPrevisaoInicio": "2016-05-23T18:16:55.453Z",
        "dataPrevisaoFim": "2016-10-28T16:33:01.090Z",
        "pf": 369,
        "valor": "329.00",
        "diasDescontoPlanejamento": 1,
        "diasDescontoConclusao": 9,
        "status": "Planejada"
      }
    ]
  },
  {
    "id": "GSOL45417",
    "sistema": "S320",
    "assunto": "[S320] Sunt totam expedita qui aliquam autem corporis doloribus fugit repudiandae.",
    "descricao": "Aperiam enim veritatis amet totam qui. Ullam id rerum dolor velit. Tempora earum occaecati voluptas molestias sit.",
    "dataAbertura": "2016-05-16T05:14:28.513Z",
    "dataPlanejamento": "2016-05-16T19:22:47.216Z",
    "dataPrevisaoInicio": "2016-07-25T16:50:53.645Z",
    "dataPrevisaoFim": "2017-02-27T11:50:46.055Z",
    "pf": 294,
    "valor": "531.00",
    "diasDescontoPlanejamento": 0,
    "diasDescontoConclusao": 5,
    "status": "Finalizada",
    "pmasPrazo": 10,
    "pmasRealizado": 0,
    "pmasDescontar": 0,
    "pmasMulta": "869.00",
    "pmcosPrazo": 6,
    "pmcosRealizado": 4,
    "pmcosDescontar": 4,
    "pmcosMulta": "374.00",
    "diasInuteis": [
      "2016-05-17T03:16:44.688Z",
      "2016-05-16T21:28:32.717Z"
    ],
    "entregas": [
      {
        "id": "GSOL92315",
        "sistema": "S702",
        "assunto": "[S702] Aperiam beatae sapiente deserunt similique.",
        "descricao": "Saepe aut fugit reprehenderit. Perferendis ut unde. Facilis non inventore et. Labore ut minima quod consequatur fuga quasi est. Vero soluta inventore porro ullam voluptate non.",
        "dataAutorizacao": "2016-05-16T10:05:27.548Z",
        "dataPrevisaoInicio": "2017-04-24T20:53:24.330Z",
        "dataPrevisaoFim": "2017-04-28T07:06:13.740Z",
        "pf": 398,
        "valor": "623.00",
        "diasDescontoPlanejamento": 6,
        "diasDescontoConclusao": 3,
        "status": "Devolvida"
      }
    ]
  },
  {
    "id": "GSOL89558",
    "sistema": "S320",
    "assunto": "[S320] Nihil nihil quo ipsa quos dolor recusandae.",
    "descricao": "Perferendis magnam ea aut culpa velit deleniti et. Ea ut nihil aut. Aliquid consectetur rerum soluta reprehenderit.",
    "dataAbertura": "2016-05-16T06:53:39.700Z",
    "dataPlanejamento": "2016-05-16T06:06:53.755Z",
    "dataPrevisaoInicio": "2017-01-21T20:21:44.509Z",
    "dataPrevisaoFim": "2017-01-25T03:53:11.956Z",
    "pf": 221,
    "valor": "568.00",
    "diasDescontoPlanejamento": 1,
    "diasDescontoConclusao": 4,
    "status": "Em_Garantia",
    "pmasPrazo": 5,
    "pmasRealizado": 5,
    "pmasDescontar": 8,
    "pmasMulta": "561.00",
    "pmcosPrazo": 4,
    "pmcosRealizado": 5,
    "pmcosDescontar": 2,
    "pmcosMulta": "394.00",
    "diasInuteis": [
      "2016-05-16T15:29:16.914Z",
      "2016-05-16T19:41:11.217Z"
    ],
    "entregas": [
      {
        "id": "GSOL76040",
        "sistema": "S702",
        "assunto": "[S702] Consequatur dolorem accusamus error illum.",
        "descricao": "Architecto quidem qui odio qui odit. Repellendus beatae laboriosam officia veniam eius. Sunt ratione officiis. Facere cupiditate in eveniet quam impedit ducimus. Dolores corrupti ipsum et.",
        "dataAutorizacao": "2016-05-17T03:02:59.291Z",
        "dataPrevisaoInicio": "2017-03-27T11:22:53.036Z",
        "dataPrevisaoFim": "2017-04-16T19:18:18.814Z",
        "pf": 217,
        "valor": "238.00",
        "diasDescontoPlanejamento": 1,
        "diasDescontoConclusao": 10,
        "status": "Finalizada"
      }
    ]
  },
  {
    "id": "GSOL8610",
    "sistema": "S549",
    "assunto": "[S549] Laudantium earum consequatur laborum culpa voluptates dolor atque.",
    "descricao": "Amet a odit. Tempore laboriosam cumque. Libero quia quia sit. Qui autem dolor blanditiis. Qui neque qui neque reiciendis autem. Cumque dolores enim maiores deleniti et earum maxime doloribus doloremque.",
    "dataAbertura": "2016-05-17T01:52:29.267Z",
    "dataPlanejamento": "2016-05-16T16:16:42.433Z",
    "dataPrevisaoInicio": "2016-07-22T09:43:52.153Z",
    "dataPrevisaoFim": "2017-04-08T21:46:31.524Z",
    "pf": 17,
    "valor": "991.00",
    "diasDescontoPlanejamento": 3,
    "diasDescontoConclusao": 1,
    "status": "Em_Garantia",
    "pmasPrazo": 10,
    "pmasRealizado": 3,
    "pmasDescontar": 9,
    "pmasMulta": "893.00",
    "pmcosPrazo": 7,
    "pmcosRealizado": 6,
    "pmcosDescontar": 5,
    "pmcosMulta": "248.00",
    "diasInuteis": [
      "2016-05-16T17:58:40.115Z",
      "2016-05-16T08:44:18.940Z"
    ],
    "entregas": [
      {
        "id": "GSOL47083",
        "sistema": "S702",
        "assunto": "[S702] Voluptatem deserunt nisi non optio.",
        "descricao": "Dignissimos dolor maiores. Aut dolorem hic. Ex beatae nihil. Error ipsam a sint non.",
        "dataAutorizacao": "2016-05-16T10:48:00.265Z",
        "dataPrevisaoInicio": "2017-05-13T11:49:31.966Z",
        "dataPrevisaoFim": "2016-05-26T00:13:24.066Z",
        "pf": 47,
        "valor": "340.00",
        "diasDescontoPlanejamento": 2,
        "diasDescontoConclusao": 7,
        "status": "Finalizada"
      }
    ]
  },
  {
    "id": "GSOL9392",
    "sistema": "S990",
    "assunto": "[S990] Et facere qui.",
    "descricao": "Expedita dolores inventore necessitatibus rerum maiores et dolorem voluptatem. Ut tenetur qui commodi dolores ea culpa veritatis ipsam vero. Fuga aliquid deserunt eos atque eaque id fugiat ut nam. A et ipsam suscipit. Consequatur tempora quod molestiae quidem dicta ut cum dolorem.",
    "dataAbertura": "2016-05-16T21:19:25.293Z",
    "dataPlanejamento": "2016-05-16T22:00:29.973Z",
    "dataPrevisaoInicio": "2016-12-14T10:41:37.661Z",
    "dataPrevisaoFim": "2017-04-07T14:23:30.214Z",
    "pf": 38,
    "valor": "536.00",
    "diasDescontoPlanejamento": 7,
    "diasDescontoConclusao": 5,
    "status": "Em_Avaliacao_GF",
    "pmasPrazo": 2,
    "pmasRealizado": 7,
    "pmasDescontar": 6,
    "pmasMulta": "905.00",
    "pmcosPrazo": 5,
    "pmcosRealizado": 4,
    "pmcosDescontar": 10,
    "pmcosMulta": "391.00",
    "diasInuteis": [
      "2016-05-16T21:00:40.333Z",
      "2016-05-16T11:59:47.949Z"
    ],
    "entregas": [
      {
        "id": "GSOL98733",
        "sistema": "S549",
        "assunto": "[S549] Modi nisi dolor totam delectus.",
        "descricao": "Libero accusantium accusantium suscipit corporis quo tempore ut optio. Quod quia excepturi ut nisi aspernatur dolores cumque aliquid voluptas. Fugiat ratione itaque facere et et cum at rerum.",
        "dataAutorizacao": "2016-05-16T10:33:49.179Z",
        "dataPrevisaoInicio": "2017-04-02T15:44:35.366Z",
        "dataPrevisaoFim": "2017-01-19T21:05:11.924Z",
        "pf": 180,
        "valor": "819.00",
        "diasDescontoPlanejamento": 8,
        "diasDescontoConclusao": 8,
        "status": "Em_Execucao"
      }
    ]
  }
]
